# Blender MTL File: 'None'
# Material Count: 5

newmtl Material_#120
Ns 19.607843
Ka 0.000000 0.000000 0.000000
Kd 0.470400 0.470400 0.470400
Ks 0.000000 0.000000 0.000000
Ni 1.000000
d 1.000000
illum 1
map_Kd 01.jpg

newmtl Material_#121
Ns 19.607843
Ka 0.000000 0.000000 0.000000
Kd 0.470400 0.470400 0.470400
Ks 0.000000 0.000000 0.000000
Ni 1.000000
d 1.000000
illum 1
map_Kd bg.jpg

newmtl Material_#122
Ns 19.607843
Ka 0.000000 0.000000 0.000000
Kd 0.470400 0.470400 0.470400
Ks 0.000000 0.000000 0.000000
Ni 1.000000
d 1.000000
illum 1
map_Kd 02.jpg

newmtl Material_#123
Ns 19.607843
Ka 0.000000 0.000000 0.000000
Kd 0.470400 0.470400 0.470400
Ks 0.000000 0.000000 0.000000
Ni 1.000000
d 1.000000
illum 1
map_Kd 03.jpg

newmtl Material_#138
Ns 19.607843
Ka 0.000000 0.000000 0.000000
Kd 0.470588 0.470588 0.442353
Ks 0.000000 0.000000 0.000000
Ni 1.000000
d 1.000000
illum 1
